Lab 5
…
Exercise 3

Exercise 4 Plot the total number of confirmed deaths per day worldwide

time_series_deaths_long %>% 
group_by(Country_Region) %>% 
  summarise_at(c("Deaths"), sum) %>% 
  ggplot(aes(x = Date, y = Deaths)) +
    geom_line() +
    ggtitle("Covid-19 Deaths Worldwide")

time_series_deaths_long

## # A tibble: 66,234 x 2
##    Key                    Deaths
##    <chr>                   <dbl>
##  1 NA.Afghanistan.1/22/20      0
##  2 NA.Afghanistan.1/23/20      0
##  3 NA.Afghanistan.1/24/20      0
##  4 NA.Afghanistan.1/25/20      0
##  5 NA.Afghanistan.1/26/20      0
##  6 NA.Afghanistan.1/27/20      0
##  7 NA.Afghanistan.1/28/20      0
##  8 NA.Afghanistan.1/29/20      0
##  9 NA.Afghanistan.1/30/20      0
## 10 NA.Afghanistan.1/31/20      0
## #  with 66,224 more rows
…
